Empirical species size distribution - Data cleaning
…
  dat_obs_f3 |>
    left_join(dat_surv) |>
    mutate(good_geog = vals) |>
    write_csv(file_name)
}

file_name |> read_csv()

# A tibble: 15,050,191 x 11
   survey_id species_~1 size_~2 site_~3 ecore~4 latit~5 longi~6 depth survey_d~7
       <dbl> <chr>        <dbl> <chr>   <chr>     <dbl>   <dbl> <dbl> <date>    
 1   2000854 Achoerodu~    50   SYD54   Mannin~   -33.8    151.   6.5 2009-06-27
 2   2000854 Achoerodu~    62.5 SYD54   Mannin~   -33.8    151.   6.5 2009-06-27
 3   2000854 Achoerodu~   112.  SYD54   Mannin~   -33.8    151.   6.5 2009-06-27
 4   2000854 Aplodacty~    15   SYD54   Mannin~   -33.8    151.   6.5 2009-06-27
 5   2000854 Aplodacty~    20   SYD54   Mannin~   -33.8    151.   6.5 2009-06-27
 6   2000854 Atypichth~     2.5 SYD54   Mannin~   -33.8    151.   6.5 2009-06-27
 7   2000854 Atypichth~     2.5 SYD54   Mannin~   -33.8    151.   6.5 2009-06-27
 8   2000854 Atypichth~     2.5 SYD54   Mannin~   -33.8    151.   6.5 2009-06-27
 9   2000854 Atypichth~     2.5 SYD54   Mannin~   -33.8    151.   6.5 2009-06-27
10   2000854 Atypichth~     2.5 SYD54   Mannin~   -33.8    151.   6.5 2009-06-27
# ... with 15,050,181 more rows, 2 more variables: survey_year <dbl>,
#   good_geog <lgl>, and abbreviated variable names 1: species_name,
#   2: size_class, 3: site_code, 4: ecoregion, 5: latitude, 6: longitude,
#   7: survey_date
…
