Empirical species size distribution - gridcell
…
prediction_table |> 
  arrange(lat_grid, survey_year, size_class)

# A tibble: 14,880 x 11
   size_c~1 lat_g~2 surve~3 size_~4 bin_lwr bin_upr lat_z year_z upr_p~5 lwr_p~6
      <dbl>   <dbl>   <dbl>   <int>   <dbl>   <dbl> <dbl>  <dbl>   <dbl>   <dbl>
 1      2.5     -44    1992       1    1.25    3.75 -1.26  -2.21   0.800   0.415
 2      5       -44    1992       2    3.75    6.25 -1.26  -2.21   0.909   0.800
 3      7.5     -44    1992       3    6.25    8.75 -1.26  -2.21   0.951   0.909
 4     10       -44    1992       4    8.75   11.2  -1.26  -2.21   0.971   0.951
 5     12.5     -44    1992       5   11.2    13.8  -1.26  -2.21   0.982   0.971
 6     15       -44    1992       6   13.8    17.5  -1.26  -2.21   0.990   0.982
 7     20       -44    1992       7   17.5    22.5  -1.26  -2.21   0.995   0.990
 8     25       -44    1992       8   22.5    27.5  -1.26  -2.21   0.997   0.995
 9     30       -44    1992       9   27.5    32.5  -1.26  -2.21   0.998   0.997
10     35       -44    1992      10   32.5    37.5  -1.26  -2.21   0.999   0.998
# ... with 14,870 more rows, 1 more variable: prob <dbl>, and abbreviated
#   variable names 1: size_class, 2: lat_grid, 3: survey_year, 4: size_index,
#   5: upr_pred, 6: lwr_pred
…
